MR analysis using ADNI and ROSMAP data
…
# show top combined p-values
results_with_coords %>% as_tibble() %>%
  arrange(WGLR_Cauchy_cauchy) %>%
  dplyr::select(geneSymbol, WGLR_Cauchy_cauchy)

## # A tibble: 41 x 2
##    geneSymbol WGLR_Cauchy_cauchy
##    <chr>                   <dbl>
##  1 ABCA7                0.000107
##  2 ATP1B1               0.00584 
##  3 GSTK1                0.0261  
##  4 GDA                  0.0564  
##  5 DBT                  0.0887  
##  6 TUBB3                0.117   
##  7 AK1                  0.122   
##  8 MAPK1                0.123   
##  9 NNT                  0.132   
## 10 MDH2                 0.138   
## #  with 31 more rows

#  show p-values before combination
results_with_coords_long %>% as_tibble() %>%
  arrange(pval_SMR) %>%
  dplyr::select(geneSymbol, pval_SMR, modality) %>%
  mutate(pval_SMR_adjusted_for_3_modalties = pval_SMR * 3)

## # A tibble: 123 x 4
##    geneSymbol  pval_SMR modality       pval_SMR_adjusted_for_3_modalties
##    <chr>          <dbl> <chr>                                      <dbl>
##  1 ABCA7      0.0000358 SMR_expression                          0.000107
##  2 ATP1B1     0.00219   SMR_expression                          0.00658 
##  3 GSTK1      0.00929   SMR_protein                             0.0279  
##  4 ATP1B1     0.0189    SMR_metabolite                          0.0567  
##  5 ATP1A3     0.0236    SMR_expression                          0.0707  
##  6 AK1        0.0241    SMR_metabolite                          0.0723  
##  7 GDA        0.0279    SMR_metabolite                          0.0838  
##  8 TUBB3      0.0423    SMR_protein                             0.127   
##  9 PHGDH      0.0518    SMR_metabolite                          0.155   
## 10 IDH2       0.0531    SMR_metabolite                          0.159   
## #  with 113 more rows
…
